Sergio,Casmuz,true,70,60,60,70,60,75,80,80
Carolina,Diaz,true,40,45,50,55,60,65,70,75
Andrea,Diaz,true,55,60,65,70,75,80,85,90
Matias,Direse,true,50,70,70,75,75,70,85,70
Mario,Fernandez,true,60,65,70,75,80,85,90,95
Luis,Fernandez,true,75,80,85,90,95,100,105,110
Julia,Fernandez,false,70,75,80,85,90,95,100,105
Silvia,Fernandez,true,50,55,60,65,70,75,80,85
Ana,Garcia,false,50,55,60,65,70,75,80,85
Maria,Garcia,false,55,60,65,70,75,80,85,90
Carlos,Gomez,true,65,75,70,80,70,65,75,80
Daniel,Gomez,true,55,60,65,70,75,80,85,90
Paula,Gomez,false,40,45,50,55,60,65,70,75
Manuel,Gutierrez,true,60,65,70,75,80,85,90,95
Nicolas,Lopez,true,65,70,75,80,85,90,95,100
Elena,Lopez,false,50,55,60,65,70,75,80,85
Diego,Lopez,true,70,75,80,85,90,95,100,105
Roberto,Martin,true,75,80,85,90,95,100,105,110
Javier,Martin,true,65,70,75,80,85,90,95,100
Adriana,Martinez,false,50,55,60,65,70,75,80,85
Valeria,Martinez,false,45,50,55,60,65,70,75,80
Lucia,Martinez,false,40,50,55,60,65,70,75,80
Juan,Perez,true,55,60,65,70,75,80,85,90
Ricardo,Perez,true,45,50,55,60,65,70,75,80
Jorge,Perez,true,70,75,80,85,90,95,100,105
Pablo,Ramirez,true,45,50,55,60,65,70,75,80
Laura,Rodriguez,false,45,50,55,60,65,70,75,80
Luciano,Rodriguez,true,80,85,90,95,100,105,110,115
Sofia,Rodriguez,false,55,60,65,70,75,80,85,90
Antonio,Rodriguez,true,80,85,90,95,100,105,110,115
Marta,Sanchez,false,35,40,45,50,55,60,65,70
Isabel,Sanchez,false,60,65,70,75,80,85,90,95
Gaston,Sarubbi,true,30,40,30,70,70,75,60,60
Ana,González,false,55,55,55,55,55,55,55,55
Martín,Ortega,true,60,60,60,60,60,60,60,60
Luciana,Mendoza,false,65,65,65,65,65,65,65,65
Agustín,Moreno,true,70,70,70,70,70,70,70,70
Valentina,López,false,75,75,75,75,75,75,75,75
Mateo,Rodríguez,true,80,80,80,80,80,80,80,80
Sofía,García,false,85,85,85,85,85,85,85,85
Tomás,Fernández,true,90,90,90,90,90,90,90,90
Isabella,Martínez,false,95,95,95,95,95,95,95,95
Emiliano,Pérez,true,100,100,100,100,100,100,100,100
Valeria,Álvarez,false,105,105,105,105,105,105,105,105
Benjamín,Romero,true,110,110,110,110,110,110,110,110
Camila,Díaz,false,115,115,115,115,115,115,115,115
Sebastián,Chávez,true,120,120,120,120,120,120,120,120
María,Flores,false,125,125,125,125,125,125,125,125
Lucas,Hernández,true,130,130,130,130,130,130,130,130
Emma,Pérez,false,135,135,135,135,135,135,135,135
Marcos,Gómez,true,140,140,140,140,140,140,140,140
Valentina,Rodríguez,false,145,145,145,145,145,145,145,145
Mateo,Martínez,true,150,150,150,150,150,150,150,150
Olivia,López,false,155,155,155,155,155,155,155,155
Santiago,Fernández,true,160,160,160,160,160,160,160,160
Isabella,González,false,165,165,165,165,165,165,165,165
Emiliano,Rodríguez,true,170,170,170,170,170,170,170,170
Valeria,García,false,175,175,175,175,175,175,175,175
Sebastián,Martínez,true,180,180,180,180,180,180,180,180
Camila,Fernández,false,185,185,185,185,185,185,185,185
Lucas,Rodríguez,true,190,190,190,190,190,190,190,190
Martina,Gómez,false,195,195,195,195,195,195,195,195
Tomás,Pérez,true,200,200,200,200,200,200,200,200
Valentina,Martínez,false,205,205,205,205,205,205,205,205
Benjamín,Fernández,true,210,210,210,210,210,210,210,210
Isabella,Pérez,false,215,215,215,215,215,215,215,215
Santiago,González,true,220,220,220,220,220,220,220,220
Emma,Rodríguez,false,225,225,225,225,225,225,225,225
Mateo,Martínez,true,230,230,230,230,230,230,230,230
Valentina,Rodríguez,false,235,235,235,235,235,235,235,235
Benjamín,Fernández,true,240,240,240,240,240,240,240,240
Emma,González,false,245,245,245,245,245,245,245,245
Lucas,Hernández,true,250,250,250,250,250,250,250,250
Olivia,López,false,255,255,255,255,255,255,255,255
Santiago,Rodríguez,true,260,260,260,260,260,260,260,260
Camila,Martínez,false,265,265,265,265,265,265,265,265
Tomás,García,true,270,270,270,270,270,270,270,270
Isabella,Pérez,false,275,275,275,275,275,275,275,275
Martín,Fernández,true,280,280,280,280,280,280,280,280
Valentina,Martínez,false,285,285,285,285,285,285,285,285
Benjamín,Rodríguez,true,290,290,290,290,290,290,290,290
Emma,Gómez,false,295,295,295,295,295,295,295,295
Santiago,Pérez,true,300,300,300,300,300,300,300,300
Isabella,González,false,305,305,305,305,305,305,305,305
,Lucas,Rodríguez,true,310,310,310,310,310,310,310,310
230,Valentina,Fernández,false,315,315,315,315,315,315,315,315
231,Benjamín,Pérez,true,320,320,320,320,320,320,320,320
232,Emma,Martínez,false,325,325,325,325,325,325,325,325
