Sergio,Casmuz,true,70,60,60,70,60,75,80,80
Carolina,Diaz,true,40,45,50,55,60,65,70,75
Andrea,Diaz,true,55,60,65,70,75,80,85,90
Matias,Direse,true,50,70,70,75,75,70,85,70
Mario,Fernandez,true,60,65,70,75,80,85,90,95
Luis,Fernandez,true,75,80,85,90,95,100,105,110
Julia,Fernandez,false,70,75,80,85,90,95,100,105
Silvia,Fernandez,true,50,55,60,65,70,75,80,85
Ana,Garcia,false,50,55,60,65,70,75,80,85
Maria,Garcia,false,55,60,65,70,75,80,85,90
Carlos,Gomez,true,65,75,70,80,70,65,75,80
Daniel,Gomez,true,55,60,65,70,75,80,85,90
Paula,Gomez,false,40,45,50,55,60,65,70,75
Manuel,Gutierrez,true,60,65,70,75,80,85,90,95
Nicolas,Lopez,true,65,70,75,80,85,90,95,100
Elena,Lopez,false,50,55,60,65,70,75,80,85
Diego,Lopez,true,70,75,80,85,90,95,100,105
Roberto,Martin,true,75,80,85,90,95,100,105,110
Javier,Martin,true,65,70,75,80,85,90,95,100
Adriana,Martinez,false,50,55,60,65,70,75,80,85
Valeria,Martinez,false,45,50,55,60,65,70,75,80
Lucia,Martinez,false,40,50,55,60,65,70,75,80
Juan,Perez,true,55,60,65,70,75,80,85,90
Ricardo,Perez,true,45,50,55,60,65,70,75,80
Jorge,Perez,true,70,75,80,85,90,95,100,105
Pablo,Ramirez,true,45,50,55,60,65,70,75,80
Laura,Rodriguez,false,45,50,55,60,65,70,75,80
Luciano,Rodriguez,true,80,85,90,95,100,105,110,115
Sofia,Rodriguez,false,55,60,65,70,75,80,85,90
Antonio,Rodriguez,true,80,85,90,95,100,105,110,115
Marta,Sanchez,false,35,40,45,50,55,60,65,70
Isabel,Sanchez,false,60,65,70,75,80,85,90,95
Gaston,Sarubbi,true,30,40,30,70,70,75,60,60
Ana,González,false,55,55,55,55,55,55,55,55
Martín,Ortega,true,60,60,60,60,60,60,60,60
Luciana,Mendoza,false,65,65,65,65,65,65,65,65
Agustín,Moreno,true,70,70,70,70,70,70,70,70
Valentina,López,false,75,75,75,75,75,75,75,75
Mateo,Rodríguez,true,80,80,80,80,80,80,80,80
Sofía,García,false,85,85,85,85,85,85,85,85
Tomás,Fernández,true,90,90,90,90,90,90,90,90
Isabella,Martínez,false,95,95,95,95,95,95,95,95
Diego Maradona,true,80,90,85,95,80,85,90,85
Eva Perón,false,70,80,75,85,70,75,80,75
Lionel Messi,true,90,95,90,95,90,95,95,90
Carlos Gardel,true,85,90,85,90,85,90,90,85
Mirtha Legrand,false,75,80,75,80,75,80,80,75
Che Guevara,true,80,85,80,85,80,85,85,80
Jorge Luis Borges,true,85,90,85,90,85,90,90,85
Mercedes Sosa,false,75,80,75,80,75,80,80,75
Luis Alberto Spinetta,true,90,95,90,95,90,95,95,90
Cristina Fernández de Kirchner,false,70,80,75,85,70,75,80,75
Juan Manuel Fangio,true,95,100,95,100,95,100,100,95
Susana Giménez,false,75,80,75,80,75,80,80,75
René Favaloro,true,85,90,85,90,85,90,90,85
Néstor Kirchner,true,80,85,80,85,80,85,85,80
Ricardo Darín,true,90,95,90,95,90,95,95,90
Adrián Suar,true,85,90,85,90,85,90,90,85
Eduardo Galeano,true,75,80,75,80,75,80,80,75
Juan Martín del Potro,true,95,100,95,100,95,100,100,95
César Milstein,true,80,85,80,85,80,85,85,80
Lola Mora,false,70,80,75,85,70,75,80,75
Atahualpa Yupanqui,true,85,90,85,90,85,90,90,85
Luisana Lopilato,false,75,80,75,80,75,80,80,75
Horacio Quiroga,true,80,85,80,85,80,85,85,80
Juan Domingo Perón,true,90,95,90,95,90,95,95,90
Eva Duarte de Perón,false,70,80,75,85,70,75,80,75
Cacho Castaña,true,85,90,85,90,85,90,90,85
Marta Minujín,false,75,80,75,80,75,80,80,75
Raúl Alfonsín,true,80,85,80,85,80,85,85,80
Ricardo Fort,true,90,95,90,95,90,95,95,90
Nacha Guevara,false,70,80,75,85,70,75,80,75
Benjamín Solari Parravicini,true,85,90,85,90,85,90,90,85
Luciano Pereyra,true,90,95,90,95,90,95,95,90
Joaquín Sabina,true,85,90,85,90,85,90,90,85
Juan José Campanella,true,80,85,80,85,80,85,85,80
Julieta Venegas,false,75,80,75,80,75,80,80,75
Miguel Ángel Asturias,true,90,95,90,95,90,95,95,90
Charly García,true,85,90,85,90,85,90,90,85
Jorge Luis Borges,true,90,95,90,95,90,95,95,90
Cristina Banegas,false,75,80,75,80,75,80,80,75
José Hernández,true,80,85,80,85,80,85,85,80
Juan Manuel Fangio,true,95,95,95,95,95,95,95,95
Mercedes Sosa,false,80,85,80,85,80,85,85,80
David Nalbandian,true,85,90,85,90,85,90,90,85
Isabel Sarli,false,75,80,75,80,75,80,80,75
Leopoldo Lugones,true,90,95,90,95,90,95,95,90
Natalia Oreiro,false,70,75,70,75,70,75,75,70
Rodolfo Walsh,true,85,90,85,90,85,90,90,85
Guillermo Vilas,true,90,95,90,95,90,95,95,90
Evita,true,95,95,95,95,95,95,95,95
Luis Federico Leloir,true,90,95,90,95,90,95,95,90
Roberto Arlt,true,85,90,85,90,85,90,90,85
Jorge Newbery,true,80,85,80,85,80,85,85,80
Carlos Gardel,true,95,95,95,95,95,95,95,95
Carlos Monzón,true,90,95,90,95,90,95,95,90
Alfredo Di Stéfano,true,95,95,95,95,95,95,95,95
Florencia Peña,false,70,75,70,75,70,75,75,70
Carlos Tevez,true,85,90,85,90,85,90,90,85
Lionel Messi,true,95,95,95,95,95,95,95,95
Gabriela Sabatini,false,80,85,80,85,80,85,85,80
Susana Giménez,false,75,80,75,80,75,80,80,75